[
  {
    "definitions_word_en": "added to an existing or usual amount or number; additional.",
    "id_lesson": "extra_e",
    "definitions_ex_en": "they offered him an extra thirty-five cents an hour",
    "definitions_ex_vn": "họ đã cung cấp cho anh ta thêm ba mươi lăm xu một giờ",
    "definitions_type_word": "adjective"
  },
  {
    "definitions_word_en": "excessive or extravagant.",
    "id_lesson": "extra_e",
    "definitions_ex_en": "“crudité” is so extra—just call it a snack",
    "definitions_ex_vn": "\"Crudité\" rất hấp dẫn - chỉ cần gọi nó là một bữa ăn nhẹ",
    "definitions_type_word": "adjective"
  },
  {
    "definitions_word_en": "to a greater extent than usual; especially.",
    "id_lesson": "extra_e",
    "definitions_ex_en": "he is trying to be extra good",
    "definitions_ex_vn": "anh ấy đang cố gắng để có thêm tốt",
    "definitions_type_word": "adverb"
  },
  {
    "definitions_word_en": "in addition.",
    "id_lesson": "extra_e",
    "definitions_ex_en": "installation will cost about $60 extra",
    "definitions_ex_vn": "Cài đặt sẽ có giá khoảng 60 đô la",
    "definitions_type_word": "adverb"
  },
  {
    "definitions_word_en": "an item in addition to what is usual or strictly necessary.",
    "id_lesson": "extra_e",
    "definitions_ex_en": "I had an education with all the extras",
    "definitions_ex_vn": "Tôi đã có một nền giáo dục với tất cả các tính năng bổ sung",
    "definitions_type_word": "noun"
  },
  {
    "definitions_word_en": "outside; beyond.",
    "id_lesson": "extra_e",
    "definitions_ex_en": "",
    "definitions_ex_vn": "",
    "definitions_type_word": "prefix"
  }
]