[
  {
    "definitions_word_en": "a picture made using a camera, in which an image is focused onto film or other light-sensitive material and then made visible and permanent by chemical treatment, or stored digitally.",
    "id_lesson": "photograph_p",
    "definitions_ex_en": "a photograph of her father",
    "definitions_ex_vn": "một bức ảnh của cha cô",
    "definitions_type_word": "noun"
  },
  {
    "definitions_word_en": "take a photograph of.",
    "id_lesson": "photograph_p",
    "definitions_ex_en": "she has photographed all of the major ballet companies worldwide",
    "definitions_ex_vn": "Cô đã chụp ảnh tất cả các công ty ba lê lớn trên toàn thế giới",
    "definitions_type_word": "verb"
  }
]