[
  {
    "definitions_word_en": "a series of events that are regularly repeated in the same order.",
    "id_lesson": "cycle_c",
    "definitions_ex_en": "the boom and slump periods of a trade cycle",
    "definitions_ex_vn": "sự bùng nổ và thời gian slump của một chu kỳ thương mại",
    "definitions_type_word": "noun"
  },
  {
    "definitions_word_en": "a complete set or series.",
    "id_lesson": "cycle_c",
    "definitions_ex_en": "the painting is one of a cycle of seven",
    "definitions_ex_vn": "Bức tranh là một trong những chu kỳ bảy",
    "definitions_type_word": "noun"
  },
  {
    "definitions_word_en": "a bicycle or tricycle.",
    "id_lesson": "cycle_c",
    "definitions_ex_en": "for the energetic, cycles may be hired",
    "definitions_ex_vn": "Đối với năng lượng, chu kỳ có thể được thuê",
    "definitions_type_word": "noun"
  },
  {
    "definitions_word_en": "ride a bicycle.",
    "id_lesson": "cycle_c",
    "definitions_ex_en": "she cycled to work every day",
    "definitions_ex_vn": "Cô đạp xe đi làm mỗi ngày",
    "definitions_type_word": "verb"
  },
  {
    "definitions_word_en": "move in or follow a regularly repeated sequence of events.",
    "id_lesson": "cycle_c",
    "definitions_ex_en": "economies cycle regularly between boom and slump",
    "definitions_ex_vn": "chu trình kinh tế thường xuyên giữa sự bùng nổ và sụt giảm",
    "definitions_type_word": "verb"
  }
]