[
  {
    "definitions_word_en": "in contrast or comparison with the fact that.",
    "id_lesson": "whereas_w",
    "definitions_ex_en": "you treat the matter lightly, whereas I myself was never more serious",
    "definitions_ex_vn": "bạn đối xử với vấn đề nhẹ, trong khi bản thân tôi không bao giờ nghiêm trọng hơn",
    "definitions_type_word": "conjunction"
  }
]