[
  {
    "definitions_word_en": "not mixed or adulterated with any other substance or material.",
    "id_lesson": "pure_p",
    "definitions_ex_en": "cars can run on pure alcohol",
    "definitions_ex_vn": "Ô tô có thể chạy trên rượu nguyên chất",
    "definitions_type_word": "adjective"
  }
]