[
  {
    "definitions_word_en": "a thing constituting a piece of evidence about the past, especially an account kept in writing or some other permanent form.",
    "id_lesson": "record_r",
    "definitions_ex_en": "you should keep a written record",
    "definitions_ex_vn": "Bạn nên giữ một bản ghi bằng văn bản",
    "definitions_type_word": "noun"
  },
  {
    "definitions_word_en": "the sum of the past achievements or actions of a person or organization; a person or thing\u0027s previous conduct or performance.",
    "id_lesson": "record_r",
    "definitions_ex_en": "the safety record at the airport",
    "definitions_ex_vn": "Hồ sơ an toàn tại sân bay",
    "definitions_type_word": "noun"
  },
  {
    "definitions_word_en": "(especially in sports) the best performance or most remarkable event of its kind that has been officially measured and noted.",
    "id_lesson": "record_r",
    "definitions_ex_en": "he held the world record for over a decade",
    "definitions_ex_vn": "Ông giữ kỷ lục thế giới trong hơn một thập kỷ",
    "definitions_type_word": "noun"
  },
  {
    "definitions_word_en": "a thin plastic disk carrying recorded sound, especially music, in grooves on each surface, for reproduction by a record player.",
    "id_lesson": "record_r",
    "definitions_ex_en": "I\u0027m listening to records in my room",
    "definitions_ex_vn": "Tôi đang nghe những bản ghi trong phòng của tôi",
    "definitions_type_word": "noun"
  },
  {
    "definitions_word_en": "set down in writing or some other permanent form for later reference, especially officially.",
    "id_lesson": "record_r",
    "definitions_ex_en": "",
    "definitions_ex_vn": "",
    "definitions_type_word": "verb"
  },
  {
    "definitions_word_en": "convert (sound or a performance) into permanent form for later reproduction.",
    "id_lesson": "record_r",
    "definitions_ex_en": "they were recording a guitar recital",
    "definitions_ex_vn": "họ đang ghi lại một bản nhạc guitar",
    "definitions_type_word": "verb"
  }
]