[
  {
    "definitions_word_en": "habitually or typically occurring or done; customary.",
    "id_lesson": "usual_u",
    "definitions_ex_en": "he carried out his usual evening routine",
    "definitions_ex_vn": "Ông đã thực hiện thói quen buổi tối thông thường của mình",
    "definitions_type_word": "adjective"
  },
  {
    "definitions_word_en": "the drink someone habitually orders or prefers.",
    "id_lesson": "usual_u",
    "definitions_ex_en": "",
    "definitions_ex_vn": "",
    "definitions_type_word": "noun"
  }
]