[
  {
    "definitions_word_en": "the action or method of storing something for future use.",
    "id_lesson": "storage_s",
    "definitions_ex_en": "the chair can be folded flat for easy storage",
    "definitions_ex_vn": "Ghế có thể được gấp phẳng để dễ dàng lưu trữ",
    "definitions_type_word": "noun"
  }
]