[
  {
    "definitions_word_en": "transmit (a program or some information) by radio or television.",
    "id_lesson": "broadcast_b",
    "definitions_ex_en": "the announcement was broadcast live",
    "definitions_ex_vn": "Thông báo đã được phát sóng trực tiếp",
    "definitions_type_word": "verb"
  },
  {
    "definitions_word_en": "scatter (seeds) by hand or machine rather than placing in drills or rows.",
    "id_lesson": "broadcast_b",
    "definitions_ex_en": "",
    "definitions_ex_vn": "",
    "definitions_type_word": "verb"
  },
  {
    "definitions_word_en": "a radio or television program or transmission.",
    "id_lesson": "broadcast_b",
    "definitions_ex_en": "the Queen\u0027s annual Christmas TV broadcast",
    "definitions_ex_vn": "TV Giáng sinh hàng năm của Nữ hoàng phát sóng",
    "definitions_type_word": "noun"
  },
  {
    "definitions_word_en": "relating to radio or television transmission.",
    "id_lesson": "broadcast_b",
    "definitions_ex_en": "a broadcast journalist",
    "definitions_ex_vn": "một nhà báo phát sóng",
    "definitions_type_word": "adjective"
  },
  {
    "definitions_word_en": "by scattering.",
    "id_lesson": "broadcast_b",
    "definitions_ex_en": "green manure can be sown broadcast or in rows",
    "definitions_ex_vn": "Phân xanh có thể được gieo phát sóng hoặc trong hàng",
    "definitions_type_word": "adverb"
  }
]