[
  {
    "definitions_word_en": "a strong, hard magnetic silvery-gray metal, the chemical element of atomic number 26, much used as a material for construction and manufacturing, especially in the form of steel.",
    "id_lesson": "iron_i",
    "definitions_ex_en": "",
    "definitions_ex_vn": "",
    "definitions_type_word": "noun"
  },
  {
    "definitions_word_en": "a tool or implement now or originally made of iron.",
    "id_lesson": "iron_i",
    "definitions_ex_en": "a caulking iron",
    "definitions_ex_vn": "một sắt caulking",
    "definitions_type_word": "noun"
  },
  {
    "definitions_word_en": "a handheld implement with a flat steel base that is heated (typically with electricity) to smooth clothes, sheets, etc.",
    "id_lesson": "iron_i",
    "definitions_ex_en": "",
    "definitions_ex_vn": "",
    "definitions_type_word": "noun"
  },
  {
    "definitions_word_en": "a golf club with a metal head (typically with a numeral indicating the degree to which the head is angled in order to loft the ball).",
    "id_lesson": "iron_i",
    "definitions_ex_en": "a four-iron",
    "definitions_ex_vn": "bốn sắt",
    "definitions_type_word": "noun"
  },
  {
    "definitions_word_en": "a meteorite containing a high proportion of iron.",
    "id_lesson": "iron_i",
    "definitions_ex_en": "",
    "definitions_ex_vn": "",
    "definitions_type_word": "noun"
  },
  {
    "definitions_word_en": "smooth (clothes, sheets, etc.) with an iron.",
    "id_lesson": "iron_i",
    "definitions_ex_en": "",
    "definitions_ex_vn": "",
    "definitions_type_word": "verb"
  }
]